STA 101 - Summer 24 - Exam 1 Review
…
In 2020, employees of Blizzard Entertainment circulated a spreadsheet to anonymously share salaries and recent pay increases amidst rising tension in the video game industry over wage disparities and executive compensation. (Source: Blizzard Workers Share Salaries in Revolt Over Pay)

The name of the data frame used for this analysis is blizzard_salary and the relevant variables are:

percent_incr: Raise given in July 2020, as percent increase with values ranging from 1 (1% increase) to 21.5 (21.5% increase)

salary_type: Type of salary, with levels Hourly and Salaried

annual_salary: Annual salary, in USD, with values ranging from $50,939 to $216,856.

performance_rating: Most recent review performance rating, with levels Poor, Successful, High, and Top. The Poor level is the lowest rating and the Top level is the highest rating.

The top six rows of blizzard_salary are shown below:

# A tibble: 409 × 4
   percent_incr salary_type annual_salary performance_rating
          <dbl> <chr>               <dbl> <chr>             
 1          1   Salaried               1  High              
 2          1   Salaried               1  Successful        
 3          1   Salaried               1  High              
 4          1   Hourly             33987. Successful        
 5         NA   Hourly             34798. High              
 6         NA   Hourly             35360  <NA>              
 7         NA   Hourly             37440  <NA>              
 8          0   Hourly             37814. <NA>              
 9          4   Hourly             41101. Top               
10          1.2 Hourly             42328  <NA>              
# ℹ 399 more rows
…
genre: main genre of the movie

runtime: duration of the movie (in minutes)

release_country: release country

score: IMDB user rating

Below is a peek at these variables:

movies |>
  select(name, genre, runtime, release_country, score)

# A tibble: 600 × 5
   name                                genre     runtime release_country score
   <chr>                               <chr>       <dbl> <chr>           <dbl>
 1 Malice                              Crime         107 United States     6.4
 2 Beach Rats                          Drama          98 Sweden            6.4
 3 The Souvenir                        Drama         120 United Kingdom    6.4
 4 All or Nothing                      Drama         128 United Kingdom    7.5
 5 The Final Destination               Action         82 United States     5.2
 6 Harry Potter and the Goblet of Fire Adventure     157 United States     7.7
 7 The Duke of Burgundy                Drama         104 United States     6.5
 8 Multiplicity                        Comedy        117 United States     6.1
 9 The Bad Batch                       Action        118 United States     5.3
10 Brainscan                           Comedy         96 United States     6.1
# ℹ 590 more rows
…
