STA 101 - Summer 24 - Logistic regression
…
Percentages are calculated as (100 * number of times the WORD appears in the e-mail) / total number of words in email

george: Percentage of “george”s in email (these were George’s emails)

you: Percentage of “you”s in email

Glimpse at data

What type of data is type? What type should it be in order to use logistic regression?

hp_spam |>
  select(type, george, capitalTotal, you)

# A tibble: 4,601 × 4
    type george capitalTotal   you
   <dbl>  <dbl>        <dbl> <dbl>
 1     1      0          278  1.93
 2     1      0         1028  3.47
 3     1      0         2259  1.36
 4     1      0          191  3.18
 5     1      0          191  3.18
 6     1      0           54  0   
 7     1      0          112  3.85
 8     1      0           49  0   
 9     1      0         1257  1.23
10     1      0          749  1.67
# ℹ 4,591 more rows
…
