STA 101 - Summer 24 - Tips
…
Let’s use our model to make predictions for tip_percentage for these new data:

tip_aug <- augment(tip_fit, new_data = tips_test)
tip_aug

# A tibble: 40 × 15
   .pred   .resid day    meal  payment party age   gift_card comps alcohol bday 
   <dbl>    <dbl> <chr>  <chr> <chr>   <dbl> <chr> <chr>     <chr> <chr>   <chr>
 1 0.195  0.0725  Tuesd… Late… Credit      1 Yadu… No        No    No      No   
 2 0.178 -0.00979 Tuesd… Dinn… Cash        2 Midd… No        No    No      No   
 3 0.178 -0.0103  Sunday Lunch Cash        2 SenC… No        No    No      No   
 4 0.194 -0.190   Friday Late… Cash        1 Yadu… No        No    No      No   
 5 0.179 -0.0212  Friday Late… Credit      3 Midd… No        No    Yes     No   
 6 0.150  0.00597 Satur… Dinn… Credit      5 Midd… No        No    No      No   
 7 0.154  0.0184  Satur… Dinn… Credit      4 Midd… No        No    Yes     No   
 8 0.175 -0.0104  Sunday Lunch Credit…     3 SenC… No        No    No      No   
 9 0.173 -0.0664  Satur… Dinn… Cash        3 Midd… No        No    No      No   
10 0.176  0.0183  Thurs… Dinn… Credit      2 Midd… No        No    No      No   
# ℹ 30 more rows
# ℹ 4 more variables: bill <dbl>, w_tip <dbl>, tip <dbl>, tip_percentage <dbl>
…
